<?xml version="1.0" standalone="no"?>
<!DOCTYPE svg PUBLIC "-//W3C//DTD SVG 1.1//EN" "http://www.w3.org/Graphics/SVG/1.1/DTD/svg11.dtd" >
<svg xmlns="http://www.w3.org/2000/svg" xmlns:xlink="http://www.w3.org/1999/xlink" version="1.1">
<metadata>
Created by FontForge 20170924 at Fri Sep 14 07:23:14 2018
 By www-data
Copyright (c) 2004 Linotype Library GmbH, www.linotype.com. All rights reserved. This software may not be reproduced, used, displayed, modified, disclosed or transferred without the express written approval of Linotype Library GmbH. Avenir is a trademark of Heidelberger Druckmaschinen AG, exclusively licensed through Linotype Library GmbH, and may be registered in certain jurisdictions. This typeface is original artwork of Adrian Frutiger and Akira Kobayashi. The design may be protected in certain jurisdictions.
</metadata>
<defs>
<font id="AvenirNextLTPro-Demi" horiz-adv-x="610" >
  <font-face 
    font-family="AvenirNext LT Pro Regular"
    font-weight="600"
    font-stretch="normal"
    units-per-em="1000"
    panose-1="2 11 7 4 2 2 2 2 2 4"
    ascent="756"
    descent="-244"
    x-height="480"
    cap-height="708"
    bbox="-58 -250 998 786"
    underline-thickness="50"
    underline-position="-150"
    unicode-range="U+0021-20AC"
  />
<missing-glyph horiz-adv-x="512" 
d="M222 117h56v67h-56v-67zM225 234h46q0 52 6 72q6 19 43 52q37 34 50 60t13 60q0 59 -35 95t-89 36q-56 0 -92 -34t-43 -103l50 -8q11 95 82 95q31 0 53.5 -24.5t22.5 -60.5q0 -20 -9.5 -37t-40.5 -46q-31 -31 -46 -59q-13 -25 -13 -81zM462 50h-412v617h412v-617z
M512 718h-512v-718h512v718z" />
    <glyph glyph-name=".notdef" horiz-adv-x="512" 
d="M222 117h56v67h-56v-67zM225 234h46q0 52 6 72q6 19 43 52q37 34 50 60t13 60q0 59 -35 95t-89 36q-56 0 -92 -34t-43 -103l50 -8q11 95 82 95q31 0 53.5 -24.5t22.5 -60.5q0 -20 -9.5 -37t-40.5 -46q-31 -31 -46 -59q-13 -25 -13 -81zM462 50h-412v617h412v-617z
M512 718h-512v-718h512v718z" />
    <glyph glyph-name="exclam" unicode="!" horiz-adv-x="340" 
d="M230 708v-486h-120v486h120zM90 70q0 32 23.5 55t56.5 23t56.5 -22t23.5 -54t-23.5 -55t-56.5 -23q-32 0 -56 22t-24 54z" />
    <glyph glyph-name="quotedbl" unicode="&#x22;" horiz-adv-x="459" 
d="M90 444v264h102v-264h-102zM267 444v264h102v-264h-102z" />
    <glyph glyph-name="numbersign" unicode="#" horiz-adv-x="592" 
d="M107 0l30 209h-90v84h101l18 122h-90v84h101l30 209h88l-30 -209h103l30 209h87l-30 -209h90v-84h-102l-17 -122h90v-84h-100l-31 -209h-87l30 209h-104l-30 -209h-87zM356 415h-103l-17 -122h103z" />
    <glyph glyph-name="dollar" unicode="$" 
d="M330 786v-66q128 -2 208 -71l-81 -84q-48 53 -127 53v-202q46 -14 77.5 -28.5t66 -39t52 -61.5t17.5 -85q0 -99 -62 -155t-151 -58v-72h-54v72q-144 5 -235 93l88 84q27 -32 68 -52.5t79 -21.5v222q-102 28 -155.5 73t-53.5 133q0 85 62 138.5t147 59.5v68h54zM276 430
v188q-38 -4 -63.5 -27.5t-25.5 -64.5q0 -70 89 -96zM330 298v-206q42 2 67.5 30.5t25.5 72.5q0 41 -24 64.5t-69 38.5z" />
    <glyph glyph-name="percent" unicode="%" horiz-adv-x="930" 
d="M518 174q0 77 54.5 131.5t131.5 54.5t131.5 -54.5t54.5 -131.5t-54.5 -131.5t-131.5 -54.5t-131.5 54.5t-54.5 131.5zM794 174q0 38 -26 64t-64 26t-64 -26t-26 -64t26 -64t64 -26t64 26t26 64zM40 534q0 77 54.5 131.5t131.5 54.5t131.5 -54.5t54.5 -131.5t-54.5 -131.5
t-131.5 -54.5t-131.5 54.5t-54.5 131.5zM316 534q0 38 -26 64t-64 26t-64 -26t-26 -64t26 -64t64 -26t64 26t26 64zM215 6l416 734l83 -38l-416 -734z" />
    <glyph glyph-name="ampersand" unicode="&#x26;" horiz-adv-x="741" 
d="M712 374l-142 -205l165 -169h-160l-78 81q-81 -95 -212 -95q-99 0 -168 54.5t-69 151.5q0 135 154 201q-76 78 -76 159q0 85 59.5 129.5t140.5 44.5q82 0 139 -44.5t57 -127.5q0 -121 -145 -188l116 -121l82 129h137zM328 629q-35 0 -59 -22.5t-24 -56.5q0 -56 63 -113
q102 43 102 113q0 33 -23.5 56t-58.5 23zM421 159l-151 157q-98 -36 -98 -119q0 -49 36.5 -80t80.5 -31q79 0 132 73z" />
    <glyph glyph-name="quotesingle" unicode="'" horiz-adv-x="282" 
d="M90 444v264h102v-264h-102z" />
    <glyph glyph-name="parenleft" unicode="(" horiz-adv-x="330" 
d="M36 288q0 -242 146 -444l84 55q-127 176 -127 389t127 389l-84 55q-146 -202 -146 -444z" />
    <glyph glyph-name="parenright" unicode=")" horiz-adv-x="330" 
d="M294 288q0 -242 -146 -444l-84 55q127 176 127 389t-127 389l84 55q146 -202 146 -444z" />
    <glyph glyph-name="asterisk" unicode="*" horiz-adv-x="463" 
d="M274 708v-142l135 44l26 -80l-136 -44l86 -117l-69 -50l-86 118l-84 -115l-67 51l86 113l-137 47l26 80l136 -47v142h84z" />
    <glyph glyph-name="plus" unicode="+" horiz-adv-x="666" 
d="M62 354h220v220h102v-220h220v-102h-220v-220h-102v220h-220v102z" />
    <glyph glyph-name="comma" unicode="," horiz-adv-x="260" 
d="M24 -126l70 264h116l-85 -264h-101z" />
    <glyph glyph-name="period" unicode="." horiz-adv-x="260" 
d="M50 70q0 32 23.5 55t56.5 23t56.5 -22t23.5 -54t-23.5 -55t-56.5 -23q-32 0 -56 22t-24 54z" />
    <glyph glyph-name="slash" unicode="/" horiz-adv-x="389" 
d="M386 726l-312 -774l-83 30l312 776z" />
    <glyph glyph-name="zero" unicode="0" 
d="M555 354q0 -174 -65 -273t-184 -99q-120 0 -185.5 99t-65.5 273t65.5 273t185.5 99q119 0 184 -99t65 -273zM432 354q0 44 -5 85.5t-17.5 86.5t-39 72.5t-64.5 27.5t-65 -27.5t-40 -72.5t-18 -86.5t-5 -85.5q0 -43 5 -85t18 -86.5t40 -71.5t65 -27t64.5 27t39 72t17.5 86
t5 85z" />
    <glyph glyph-name="one" unicode="1" 
d="M279 0v562l-140 -115l-70 83l221 178h109v-708h-120z" />
    <glyph glyph-name="two" unicode="2" 
d="M69 0v110l273 268q72 70 72 139q0 49 -32 79t-81 30q-50 0 -81.5 -33.5t-38.5 -87.5l-117 18q11 89 77 146t162 57q98 0 167 -55t69 -152q0 -63 -29.5 -112.5t-84.5 -101.5l-204 -195h319v-110h-471z" />
    <glyph glyph-name="three" unicode="3" 
d="M212 321v96h32q151 0 151 107q0 46 -32.5 74t-79.5 28q-43 0 -72.5 -25t-40.5 -66l-113 29q19 72 83 117t148 45q98 0 163 -51t65 -143q0 -57 -35 -101.5t-92 -58.5v-2q65 -13 105.5 -59t40.5 -111q0 -103 -74 -160.5t-173 -57.5q-94 0 -162 41t-95 126l112 35
q13 -44 50 -72t91 -28q53 0 91.5 29t38.5 88q0 43 -28.5 71.5t-65 38.5t-78.5 10h-30z" />
    <glyph glyph-name="four" unicode="4" 
d="M348 0v147h-327v106l301 455h144v-458h99v-103h-99v-147h-118zM348 250v317h-2l-201 -317h203z" />
    <glyph glyph-name="five" unicode="5" 
d="M505 708v-108h-289l-7 -153q33 9 83 9q107 0 175.5 -59.5t68.5 -164.5q0 -114 -74 -182t-184 -68q-87 0 -149 41t-90 114l109 40q15 -42 50.5 -67.5t82.5 -25.5q56 0 94 36.5t38 98.5q0 75 -45.5 108t-112.5 33q-89 0 -165 -39l12 387h403z" />
    <glyph glyph-name="six" unicode="6" 
d="M295 708h146l-181 -262l1 -1q29 12 75 12q94 0 160 -65.5t66 -161.5q0 -111 -73.5 -179.5t-184.5 -68.5t-185 70t-74 173q0 57 17.5 102.5t55.5 106.5zM167 222q0 -57 37.5 -97.5t98.5 -40.5t98.5 38.5t37.5 101.5q0 60 -37 99t-97 39q-61 0 -99.5 -39t-38.5 -101z" />
    <glyph glyph-name="seven" unicode="7" 
d="M51 600v108h481v-110l-283 -598h-141l298 600h-355z" />
    <glyph glyph-name="eight" unicode="8" 
d="M305 726q96 0 160 -52t64 -140q0 -60 -30 -102t-80 -58v-2q57 -14 95 -61t38 -111q0 -102 -70.5 -160t-176.5 -58t-176.5 58t-70.5 160q0 65 38.5 111.5t94.5 60.5v2q-110 40 -110 155q0 88 64.5 142.5t159.5 54.5zM305 627q-45 0 -73.5 -27.5t-28.5 -72.5
q0 -44 28 -73.5t74 -29.5q43 0 73 30t30 73q0 44 -30.5 72t-72.5 28zM305 322q-52 0 -87.5 -34t-35.5 -87q0 -54 34.5 -86t88.5 -32q53 0 87.5 32t34.5 86q0 52 -35.5 86.5t-86.5 34.5z" />
    <glyph glyph-name="nine" unicode="9" 
d="M314 0h-146l182 263l-1 1q-29 -13 -76 -13q-94 0 -160 65.5t-66 161.5q0 111 73.5 179.5t184.5 68.5t185 -70t74 -173q0 -57 -17.5 -102.5t-55.5 -106.5zM442 486q0 58 -38 99t-98 41q-61 0 -98.5 -39.5t-37.5 -102.5q0 -60 37 -99t97 -39q61 0 99.5 39t38.5 101z" />
    <glyph glyph-name="colon" unicode=":" horiz-adv-x="300" 
d="M70 70q0 32 23.5 55t56.5 23t56.5 -22t23.5 -54t-23.5 -55t-56.5 -23q-32 0 -56 22t-24 54zM70 408q0 32 23.5 55t56.5 23t56.5 -22t23.5 -54t-23.5 -55t-56.5 -23q-32 0 -56 22t-24 54z" />
    <glyph glyph-name="semicolon" unicode=";" horiz-adv-x="300" 
d="M40 -126l70 264h122l-85 -264h-107zM70 409q0 32 23.5 55t56.5 23t56.5 -22t23.5 -54t-23.5 -55t-56.5 -23q-32 0 -56 22t-24 54z" />
    <glyph glyph-name="less" unicode="&#x3c;" horiz-adv-x="666" 
d="M586 42l-506 225v72l506 225v-110l-338 -151l338 -151v-110z" />
    <glyph glyph-name="equal" unicode="=" horiz-adv-x="666" 
d="M80 444h506v-102h-506v102zM80 264h506v-102h-506v102z" />
    <glyph glyph-name="greater" unicode="&#x3e;" horiz-adv-x="666" 
d="M80 564l506 -225v-72l-506 -225v110l338 151l-338 151v110z" />
    <glyph glyph-name="question" unicode="?" horiz-adv-x="519" 
d="M328 209h-118v38q0 48 14 79t52 67l45 43q46 42 46 89q0 40 -25.5 66t-68.5 26q-45 0 -72.5 -30.5t-29.5 -73.5l-123 11q11 94 75 148t158 54q91 0 152 -51t61 -142q0 -58 -23 -94t-77 -83q-41 -36 -53.5 -57.5t-12.5 -63.5v-26zM190 70q0 32 23.5 55t56.5 23t56.5 -22
t23.5 -54t-23.5 -55t-56.5 -23q-32 0 -56 22t-24 54z" />
    <glyph glyph-name="at" unicode="@" horiz-adv-x="800" 
d="M412 467q-44 0 -71 -46.5t-27 -100.5q0 -30 14.5 -53.5t49.5 -23.5q50 0 75 43.5t25 92.5q0 88 -66 88zM670 163l55 -60q-114 -121 -311 -121q-171 0 -276.5 103.5t-105.5 267.5q0 159 111.5 266t270.5 107q70 0 132.5 -20.5t112.5 -59t79.5 -101t29.5 -140.5
q0 -115 -58 -180t-140 -65q-39 0 -63.5 19t-24.5 48h-5q-17 -28 -49 -47.5t-73 -19.5q-66 0 -104 44.5t-38 117.5q0 89 55.5 158t140.5 69q37 0 63.5 -15.5t34.5 -39.5h1l8 40h89l-39 -189q-9 -54 -9 -63q0 -40 32 -40q39 0 64.5 42.5t25.5 112.5q0 118 -73.5 183t-193.5 65
q-125 0 -204 -83.5t-79 -209.5q0 -131 82 -209t212 -78q143 0 247 98z" />
    <glyph glyph-name="A" unicode="A" horiz-adv-x="706" 
d="M-8 0l308 708h109l305 -708h-144l-66 162h-307l-64 -162h-141zM240 270h220l-109 288z" />
    <glyph glyph-name="B" unicode="B" horiz-adv-x="647" 
d="M78 0v708h276q90 0 153.5 -44t63.5 -134q0 -58 -33 -98t-90 -57v-2q69 -9 111 -53t42 -114q0 -55 -22.5 -96.5t-61.5 -64.5t-85 -34t-99 -11h-255zM204 604v-184h112q63 0 96 25t33 71q0 47 -34 67.5t-106 20.5h-101zM204 312v-206h113q158 0 158 106q0 54 -37 77
t-116 23h-118z" />
    <glyph glyph-name="C" unicode="C" horiz-adv-x="696" 
d="M685 618l-96 -76q-26 36 -70.5 54.5t-90.5 18.5q-108 0 -176.5 -74t-68.5 -185q0 -116 65.5 -188.5t174.5 -72.5q112 0 172 82l101 -71q-99 -124 -274 -124q-166 0 -272 104.5t-106 269.5q0 167 108.5 268.5t275.5 101.5q74 0 145.5 -27.5t111.5 -80.5z" />
    <glyph glyph-name="D" unicode="D" horiz-adv-x="764" 
d="M78 0v708h251q74 0 140 -18.5t124 -58t92.5 -111t34.5 -166.5q0 -89 -34.5 -159t-92 -111.5t-125 -62.5t-139.5 -21h-251zM204 110h105q41 0 78.5 7t74.5 24.5t63.5 44t43 70t16.5 98.5q0 246 -276 246h-105v-490z" />
    <glyph glyph-name="E" unicode="E" 
d="M78 0v708h469v-110h-343v-180h325v-106h-325v-200h361v-112h-487z" />
    <glyph glyph-name="F" unicode="F" horiz-adv-x="573" 
d="M78 0v708h457v-110h-331v-194h312v-106h-312v-298h-126z" />
    <glyph glyph-name="G" unicode="G" horiz-adv-x="773" 
d="M698 404v-367q-115 -55 -267 -55q-171 0 -279 104t-108 270q0 167 108.5 268.5t275.5 101.5q82 0 153.5 -24t115.5 -65l-87 -94q-28 31 -77 51.5t-104 20.5q-110 0 -178 -74t-68 -185q0 -115 68.5 -188t183.5 -73q81 0 141 25v180h-149v104h271z" />
    <glyph glyph-name="H" unicode="H" horiz-adv-x="739" 
d="M78 0v708h126v-286h331v286h126v-708h-126v314h-331v-314h-126z" />
    <glyph glyph-name="I" unicode="I" horiz-adv-x="282" 
d="M78 0v708h126v-708h-126z" />
    <glyph glyph-name="J" unicode="J" horiz-adv-x="498" 
d="M426 708v-479q0 -34 -5 -65.5t-19.5 -65.5t-37 -59t-61.5 -41t-90 -16q-83 0 -136 42t-72 114l116 33q9 -35 33 -55.5t57 -20.5q51 0 70 35.5t19 102.5v475h126z" />
    <glyph glyph-name="K" unicode="K" horiz-adv-x="689" 
d="M78 0v708h126v-306h3l296 306h170l-331 -327l353 -381h-177l-311 355h-3v-355h-126z" />
    <glyph glyph-name="L" unicode="L" horiz-adv-x="511" 
d="M78 0v708h126v-596h301v-112h-427z" />
    <glyph glyph-name="M" unicode="M" horiz-adv-x="920" 
d="M78 0v708h197l184 -503h3l182 503h198v-708h-125v569h-2l-215 -569h-88l-212 569h-2v-569h-120z" />
    <glyph glyph-name="N" unicode="N" horiz-adv-x="780" 
d="M78 0v708h167l329 -530h2v530h126v-708h-160l-336 547h-2v-547h-126z" />
    <glyph glyph-name="O" unicode="O" horiz-adv-x="849" 
d="M44 356q0 168 106.5 269t272.5 101q168 0 275 -101t107 -269q0 -165 -107.5 -269.5t-274.5 -104.5q-165 0 -272 104.5t-107 269.5zM181 356q0 -114 68 -187.5t175 -73.5q108 0 176 73.5t68 187.5q0 111 -67.5 185t-176.5 74q-108 0 -175.5 -74t-67.5 -185z" />
    <glyph glyph-name="P" unicode="P" 
d="M78 0v708h231q267 0 267 -205q0 -110 -76 -160t-199 -50h-97v-293h-126zM204 399h88q157 0 157 104q0 57 -41.5 78t-111.5 21h-92v-203z" />
    <glyph glyph-name="Q" unicode="Q" horiz-adv-x="852" 
d="M841 102v-102h-427q-172 0 -274.5 96.5t-102.5 266.5q0 160 107.5 261.5t271.5 101.5t270 -101.5t106 -261.5q0 -88 -36 -154.5t-90 -104.5v-2h175zM416 613q-103 0 -172 -71t-69 -179q0 -113 66 -183t173 -70q106 0 173.5 70t67.5 183q0 109 -66.5 179.5t-172.5 70.5z
" />
    <glyph glyph-name="R" unicode="R" horiz-adv-x="629" 
d="M78 0v708h246q71 0 127.5 -18.5t95 -66t38.5 -118.5q0 -75 -43 -124.5t-119 -66.5l189 -314h-152l-164 300h-92v-300h-126zM204 403h103q152 0 152 103q0 52 -41 74t-100 22h-114v-199z" />
    <glyph glyph-name="S" unicode="S" horiz-adv-x="574" 
d="M521 650l-82 -90q-20 27 -56.5 44t-73.5 17q-49 0 -87 -24.5t-38 -72.5q0 -24 8.5 -40.5t30 -29.5t40.5 -20t56 -19q35 -11 57.5 -19t54 -25.5t50 -37.5t32 -52.5t13.5 -72.5q0 -109 -73.5 -167.5t-184.5 -58.5q-71 0 -136.5 26.5t-106.5 74.5l90 84q26 -35 69 -56.5
t86 -21.5q51 0 89.5 26t38.5 79q0 18 -5 32.5t-18.5 26.5t-23.5 19.5t-35.5 17t-36.5 13.5t-44 14q-38 12 -65 25t-55.5 35.5t-43.5 58t-15 82.5q0 101 76.5 154.5t182.5 53.5q56 0 111.5 -19.5t94.5 -56.5z" />
    <glyph glyph-name="T" unicode="T" horiz-adv-x="568" 
d="M221 0v598h-217v110h560v-110h-217v-598h-126z" />
    <glyph glyph-name="U" unicode="U" horiz-adv-x="714" 
d="M642 708v-448q0 -126 -80.5 -202t-204.5 -76t-204.5 76t-80.5 202v448h126v-443q0 -71 38 -120.5t121 -49.5t121 49.5t38 120.5v443h126z" />
    <glyph glyph-name="V" unicode="V" horiz-adv-x="653" 
d="M270 0l-280 708h141l195 -545h4l197 545h136l-284 -708h-109z" />
    <glyph glyph-name="W" unicode="W" horiz-adv-x="1004" 
d="M213 0l-207 708h138l137 -520h2l156 520h130l153 -520h2l140 520h134l-207 -708h-122l-166 531h-2l-166 -531h-122z" />
    <glyph glyph-name="X" unicode="X" horiz-adv-x="658" 
d="M4 0l245 378l-220 330h152l146 -242l144 242h145l-216 -333l254 -375h-159l-173 278l-166 -278h-152z" />
    <glyph glyph-name="Y" unicode="Y" horiz-adv-x="622" 
d="M249 0v307l-266 401h154l178 -298l180 298h146l-266 -401v-307h-126z" />
    <glyph glyph-name="Z" unicode="Z" horiz-adv-x="611" 
d="M35 0v114l385 484h-379v110h529v-114l-387 -482h393v-112h-541z" />
    <glyph glyph-name="bracketleft" unicode="[" horiz-adv-x="330" 
d="M252 732v-78h-90v-732h90v-78h-192v888h192z" />
    <glyph glyph-name="backslash" unicode="\" horiz-adv-x="389" 
d="M3 726l83 32l312 -776l-83 -30z" />
    <glyph glyph-name="bracketright" unicode="]" horiz-adv-x="330" 
d="M78 -156v78h90v732h-90v78h192v-888h-192z" />
    <glyph glyph-name="asciicircum" unicode="^" horiz-adv-x="666" 
d="M187 343h-118l223 365h82l223 -365h-118l-147 239z" />
    <glyph glyph-name="underscore" unicode="_" horiz-adv-x="500" 
d="M500 -75v-75h-500v75h500z" />
    <glyph glyph-name="grave" unicode="`" horiz-adv-x="260" 
d="M78 708l99 -144h-94l-141 144h136z" />
    <glyph glyph-name="a" unicode="a" horiz-adv-x="550" 
d="M370 0v61h-3q-18 -32 -58.5 -52.5t-90.5 -20.5q-69 0 -124.5 36.5t-55.5 112.5q0 41 20.5 71.5t51.5 47.5t77.5 27.5t88 13.5t92.5 3v12q0 42 -31 65t-79 23q-76 0 -131 -55l-62 73q82 76 203 76q62 0 105.5 -17.5t66.5 -48t32.5 -64t9.5 -72.5v-292h-112zM368 202v17
h-27q-183 0 -183 -80q0 -32 24.5 -46t59.5 -14q61 0 93.5 32.5t32.5 90.5z" />
    <glyph glyph-name="b" unicode="b" horiz-adv-x="635" 
d="M74 756h120v-337h3q60 75 161 75q102 0 167.5 -72t65.5 -180t-64.5 -182t-171.5 -74q-51 0 -96 22.5t-69 63.5h-2v-72h-114v756zM469 242q0 62 -36.5 108t-101.5 46q-63 0 -102 -48t-39 -108t39 -107t102 -47q65 0 101.5 47t36.5 109z" />
    <glyph glyph-name="c" unicode="c" horiz-adv-x="488" 
d="M482 419l-82 -72q-14 20 -42 33.5t-57 13.5q-62 0 -97 -46.5t-35 -107.5q0 -62 36 -108t100 -46q66 0 101 43l75 -76q-62 -67 -177 -67q-110 0 -185 69t-75 185q0 114 74 184t183 70q53 0 103 -20t78 -55z" />
    <glyph glyph-name="d" unicode="d" horiz-adv-x="634" 
d="M560 756v-756h-114v72h-2q-24 -41 -69 -63.5t-96 -22.5q-107 0 -171.5 74t-64.5 182t65.5 180t167.5 72q101 0 161 -75h3v337h120zM165 242q0 -62 36.5 -109t101.5 -47q63 0 102 47t39 107t-39 108t-102 48q-65 0 -101.5 -46t-36.5 -108z" />
    <glyph glyph-name="e" unicode="e" horiz-adv-x="574" 
d="M164 288h246q0 50 -29 83t-84 33q-53 0 -91 -33t-42 -83zM530 234q0 -21 -1 -32h-365q4 -50 44 -84t93 -34q83 0 127 62l80 -64q-71 -96 -206 -96q-113 0 -185.5 68t-72.5 183t72 186t182 71q104 0 168 -67t64 -193z" />
    <glyph glyph-name="f" unicode="f" horiz-adv-x="324" 
d="M91 0v384h-91v96h91v71q0 97 45 157t149 60q36 0 61 -7l-8 -102q-23 7 -46 7q-81 0 -81 -108v-78h111v-96h-111v-384h-120z" />
    <glyph glyph-name="g" unicode="g" horiz-adv-x="632" 
d="M446 480h114v-437q0 -134 -67.5 -208.5t-203.5 -74.5q-61 0 -127 21t-111 58l69 93q71 -68 168 -68q152 0 152 165v35h-2q-54 -72 -157 -72q-105 0 -171 72.5t-66 177.5q0 107 64.5 179.5t170.5 72.5q113 0 165 -86h2v72zM304 396q-63 0 -100.5 -43.5t-37.5 -109.5
q0 -61 37.5 -106.5t99.5 -45.5q64 0 103.5 44.5t39.5 107.5q0 64 -39 108.5t-103 44.5z" />
    <glyph glyph-name="h" unicode="h" horiz-adv-x="584" 
d="M339 494q88 0 132.5 -56.5t44.5 -137.5v-300h-120v264q0 127 -89 127q-54 0 -83.5 -38.5t-29.5 -90.5v-262h-120v756h120v-343h2q16 33 54.5 57t88.5 24z" />
    <glyph glyph-name="i" unicode="i" horiz-adv-x="268" 
d="M74 0v480h120v-480h-120zM57 643q0 29 22 50.5t54 21.5q33 0 55.5 -20.5t22.5 -51.5t-22.5 -51.5t-55.5 -20.5q-32 0 -54 21.5t-22 50.5z" />
    <glyph glyph-name="j" unicode="j" horiz-adv-x="268" 
d="M74 480h120v-509q0 -47 -7.5 -82t-25.5 -66t-53.5 -47t-87.5 -16q-30 0 -54 6l10 102q15 -4 33 -4q39 0 52 26.5t13 75.5v514zM57 643q0 29 22 50.5t54 21.5q33 0 55.5 -20.5t22.5 -51.5t-22.5 -51.5t-55.5 -20.5q-32 0 -54 21.5t-22 50.5z" />
    <glyph glyph-name="k" unicode="k" horiz-adv-x="543" 
d="M74 0v756h120v-478h3l182 202h154l-208 -217l221 -263h-159l-190 246h-3v-246h-120z" />
    <glyph glyph-name="l" unicode="l" horiz-adv-x="268" 
d="M74 0v756h120v-756h-120z" />
    <glyph glyph-name="m" unicode="m" horiz-adv-x="890" 
d="M645 494q88 0 132.5 -56.5t44.5 -137.5v-300h-120v266q0 128 -90 128q-52 0 -79 -39.5t-27 -92.5v-262h-120v290q0 47 -22.5 75.5t-66.5 28.5q-51 0 -78 -38.5t-27 -91.5v-264h-120v480h114v-77h2q17 39 56 65t93 26q105 0 150 -91q50 91 158 91z" />
    <glyph glyph-name="n" unicode="n" horiz-adv-x="582" 
d="M72 0v480h114v-77h2q17 38 57.5 64.5t91.5 26.5q88 0 132.5 -56.5t44.5 -137.5v-300h-120v266q0 128 -90 128q-54 0 -83 -38.5t-29 -91.5v-264h-120z" />
    <glyph glyph-name="o" unicode="o" 
d="M44 242q0 111 75 181.5t186 70.5t186 -70.5t75 -181.5q0 -112 -75.5 -184t-185.5 -72t-185.5 72t-75.5 184zM166 242q0 -62 36 -109t103 -47t103 47t36 109t-36 108t-103 46t-103 -46t-36 -108z" />
    <glyph glyph-name="p" unicode="p" horiz-adv-x="633" 
d="M72 480h115v-67h3q21 33 63.5 57t102.5 24q102 0 167.5 -72t65.5 -180t-64.5 -182t-171.5 -74q-50 0 -93 21t-66 57h-2v-304h-120v720zM467 242q0 62 -36.5 108t-101.5 46q-63 0 -102 -48t-39 -108t39 -107t102 -47q65 0 101.5 47t36.5 109z" />
    <glyph glyph-name="q" unicode="q" horiz-adv-x="632" 
d="M560 480v-720h-120v304h-2q-23 -36 -66 -57t-93 -21q-107 0 -171.5 74t-64.5 182t65.5 180t167.5 72q60 0 102.5 -24t63.5 -57h3v67h115zM165 242q0 -62 36.5 -109t101.5 -47q63 0 102 47t39 107t-39 108t-102 48q-65 0 -101.5 -46t-36.5 -108z" />
    <glyph glyph-name="r" unicode="r" horiz-adv-x="364" 
d="M72 0v480h115v-80h2q20 43 57 68.5t83 25.5q17 0 29 -3v-110q-20 5 -37 5q-31 0 -55 -10t-37.5 -25t-22 -33.5t-11.5 -33.5t-3 -27v-257h-120z" />
    <glyph glyph-name="s" unicode="s" horiz-adv-x="444" 
d="M413 421l-78 -69q-17 22 -45 37t-60 15t-54.5 -13t-22.5 -39q0 -25 23 -37t81 -26q31 -7 55 -16.5t48.5 -25.5t38 -42t13.5 -59q0 -82 -56.5 -121t-143.5 -39q-57 0 -110 21t-87 58l79 74q46 -60 123 -60q31 0 54 14t23 43q0 28 -24.5 41.5t-85.5 27.5
q-65 16 -103.5 45.5t-38.5 90.5q0 75 56 114t135 39q54 0 103 -19t77 -54z" />
    <glyph glyph-name="t" unicode="t" horiz-adv-x="340" 
d="M87 384h-84v96h84v139h118v-139h120v-96h-120v-223q0 -36 13 -55t50 -19q31 0 51 10l4 -94q-34 -13 -80 -13q-88 0 -122 45.5t-34 124.5v224z" />
    <glyph glyph-name="u" unicode="u" horiz-adv-x="582" 
d="M510 480v-480h-114v77h-2q-17 -38 -57.5 -64.5t-91.5 -26.5q-88 0 -132.5 56.5t-44.5 137.5v300h120v-266q0 -128 90 -128q54 0 83 38.5t29 91.5v264h120z" />
    <glyph glyph-name="v" unicode="v" horiz-adv-x="513" 
d="M194 0l-194 480h131l126 -350h2l127 350h127l-191 -480h-128z" />
    <glyph glyph-name="w" unicode="w" horiz-adv-x="804" 
d="M171 0l-167 480h130l100 -344h2l103 344h128l104 -344h2l102 344h125l-166 -480h-122l-109 336h-2l-108 -336h-122z" />
    <glyph glyph-name="x" unicode="x" horiz-adv-x="537" 
d="M-1 0l195 255l-173 225h144l104 -149l107 149h138l-172 -225l196 -255h-146l-125 175l-126 -175h-142z" />
    <glyph glyph-name="y" unicode="y" horiz-adv-x="513" 
d="M206 0l-206 480h133l134 -349h2l119 349h125l-227 -583q-28 -71 -67.5 -104t-114.5 -33q-33 0 -62 7l10 104q22 -7 45 -7q36 0 52 16.5t33 58.5z" />
    <glyph glyph-name="z" unicode="z" horiz-adv-x="482" 
d="M34 0v106l259 278h-247v96h390v-106l-260 -276h272v-98h-414z" />
    <glyph glyph-name="braceleft" unicode="{" horiz-adv-x="330" 
d="M10 244v88q27 0 48 16t21 54v198q0 64 37 98t91 34h73v-84h-55q-44 0 -44 -60v-188q0 -52 -32.5 -79.5t-65.5 -31.5v-2q15 -1 29.5 -6.5t31 -17.5t27 -36t10.5 -57v-182q0 -60 44 -60h55v-84h-73q-54 0 -91 34t-37 98v191q0 42 -21 59.5t-48 17.5z" />
    <glyph glyph-name="bar" unicode="|" horiz-adv-x="222" 
d="M60 750h102v-1000h-102v1000z" />
    <glyph glyph-name="braceright" unicode="}" horiz-adv-x="330" 
d="M320 244v88q-27 0 -48 16t-21 54v198q0 64 -37 98t-91 34h-73v-84h55q44 0 44 -60v-188q0 -52 32.5 -79.5t65.5 -31.5v-2q-15 -1 -29.5 -6.5t-31 -17.5t-27 -36t-10.5 -57v-182q0 -60 -44 -60h-55v-84h73q54 0 91 34t37 98v191q0 42 21 59.5t48 17.5z" />
    <glyph glyph-name="asciitilde" unicode="~" horiz-adv-x="666" 
d="M345 354q40 -25 55.5 -31t38.5 -6q45 0 78 63l77 -65q-62 -102 -153 -102q-58 0 -121 40q-58 36 -93 36q-44 0 -78 -63l-77 65q62 103 153 103q59 0 120 -40z" />
    <glyph glyph-name="Euro" unicode="&#x20ac;" 
d="M543 121l41 -96q-67 -43 -176 -43q-129 0 -206 67t-103 173h-84l28 86h45q-1 15 -1 44q0 27 3 48h-72l30 86h55q29 110 114 175t203 65q97 0 160 -33l-38 -100q-46 28 -128 28q-63 0 -116.5 -36t-73.5 -99h288l-28 -86h-279q-3 -21 -3 -49q0 -30 2 -43h256l-27 -86h-214
q14 -58 67 -96t126 -38q76 0 131 33z" />
  </font>
</defs></svg>
