<?xml version="1.0" standalone="no"?>
<!DOCTYPE svg PUBLIC "-//W3C//DTD SVG 1.1//EN" "http://www.w3.org/Graphics/SVG/1.1/DTD/svg11.dtd" >
<svg xmlns="http://www.w3.org/2000/svg" xmlns:xlink="http://www.w3.org/1999/xlink" version="1.1">
<metadata>
Created by FontForge 20170924 at Sat Sep  8 08:36:44 2018
 By www-data
(c) 1989, 1995, 2002 Adobe Systems Incorporated. All rights reserved.
</metadata>
<defs>
<font id="AvenirLTStd-Light" horiz-adv-x="520" >
  <font-face 
    font-family="Avenir LT Std 35 Light"
    font-weight="300"
    font-stretch="normal"
    units-per-em="1000"
    panose-1="2 11 4 2 2 2 3 2 2 4"
    ascent="756"
    descent="-244"
    x-height="462"
    cap-height="708"
    bbox="-30 -250 939 787"
    underline-thickness="50"
    underline-position="-150"
    unicode-range="U+0021-20AC"
  />
<missing-glyph horiz-adv-x="500" 
d="M0 0v700h500v-700h-500zM250 395l170 255h-340zM280 350l170 -255v510zM80 50h340l-170 255zM50 605v-510l170 255z" />
    <glyph glyph-name=".notdef" horiz-adv-x="500" 
d="M0 0v700h500v-700h-500zM250 395l170 255h-340zM280 350l170 -255v510zM80 50h340l-170 255zM50 605v-510l170 255z" />
    <glyph glyph-name="exclam" unicode="!" horiz-adv-x="370" 
d="M215 708v-522h-60v522h60zM137 42q0 20 14 34t34 14t34 -14t14 -34t-14 -34t-34 -14t-34 14t-14 34z" />
    <glyph glyph-name="quotedbl" unicode="&#x22;" 
d="M161 480v228h60v-228h-60zM299 480v228h60v-228h-60z" />
    <glyph glyph-name="numbersign" unicode="#" 
d="M91 0l30 229h-108v48h115l22 156h-108v48h115l30 227h52l-31 -227h139l31 227h52l-31 -227h108v-48h-115l-21 -156h108v-48h-115l-30 -229h-52l30 229h-139l-30 -229h-52zM319 277l21 156h-138l-21 -156h138z" />
    <glyph glyph-name="dollar" unicode="$" 
d="M281 314v-272q57 2 94.5 42.5t37.5 100.5q0 80 -89 113zM233 400v266q-50 -9 -85 -45.5t-35 -90.5q0 -49 26 -77.5t77 -46.5zM233 -79v67q-56 0 -111 27.5t-89 77.5l57 39q24 -40 62 -64t81 -26v290l-71 26q-65 24 -90 72.5t-25 95.5q0 79 57 133t129 61v67h48v-67
q122 0 185 -89l-55 -40q-23 35 -58 55t-72 20v-282l70 -24q53 -19 90.5 -63t37.5 -116q0 -82 -58.5 -135t-139.5 -58v-67h-48z" />
    <glyph glyph-name="percent" unicode="%" horiz-adv-x="815" 
d="M38 548q0 71 50.5 121.5t121.5 50.5t121.5 -50.5t50.5 -121.5t-50.5 -121.5t-121.5 -50.5t-121.5 50.5t-50.5 121.5zM92 548q0 -50 34.5 -84t83.5 -34t83.5 34t34.5 84t-34.5 84t-83.5 34t-83.5 -34t-34.5 -84zM433 160q0 71 50.5 121.5t121.5 50.5t121.5 -50.5
t50.5 -121.5t-50.5 -121.5t-121.5 -50.5t-121.5 50.5t-50.5 121.5zM487 160q0 -50 34.5 -84t83.5 -34t83.5 34t34.5 84t-34.5 84t-83.5 34t-83.5 -34t-34.5 -84zM158 -6l456 748l46 -28l-457 -748z" />
    <glyph glyph-name="ampersand" unicode="&#x26;" horiz-adv-x="704" 
d="M315 388l172 -182l102 184h68l-128 -226l161 -169h-89l-106 114q-46 -62 -98 -94.5t-122 -32.5q-92 0 -154 57t-62 149q0 39 12 70.5t40 58t48.5 41t61.5 39.5q-27 33 -41.5 52t-29.5 52.5t-15 63.5q0 74 52 117.5t126 43.5q65 0 112.5 -42t47.5 -108q0 -36 -12 -65
t-39 -52.5t-47 -36t-60 -34.5zM308 666q-45 0 -76 -28t-31 -72q0 -23 14.5 -51.5t27 -44t34.5 -41.5q29 15 45 24.5t39.5 28t34.5 40.5t11 49q0 42 -28 68.5t-71 26.5zM455 151l-196 204q-25 -15 -38.5 -24t-35 -26t-32.5 -32t-19.5 -37t-8.5 -46q0 -66 46 -107t114 -41
q97 0 170 109z" />
    <glyph glyph-name="quotesingle" unicode="'" horiz-adv-x="260" 
d="M100 480v228h60v-228h-60z" />
    <glyph glyph-name="parenleft" unicode="(" horiz-adv-x="260" 
d="M197 732l51 -32q-63 -79 -96.5 -191t-33.5 -221q0 -208 130 -414l-47 -30q-69 95 -106 212t-37 232q0 119 36.5 235.5t102.5 208.5z" />
    <glyph glyph-name="parenright" unicode=")" horiz-adv-x="260" 
d="M63 -156l-51 32q63 79 96.5 191t33.5 221q0 208 -130 414l47 30q69 -95 106 -212t37 -232q0 -119 -36.5 -235.5t-102.5 -208.5z" />
    <glyph glyph-name="asterisk" unicode="*" horiz-adv-x="444" 
d="M247 708v-152l144 48l15 -48l-144 -47l91 -122l-37 -29l-94 125l-89 -125l-40 29l91 122l-146 50l14 45l147 -48v152h48z" />
    <glyph glyph-name="plus" unicode="+" horiz-adv-x="666" 
d="M78 279v48h231v231h48v-231h231v-48h-231v-231h-48v231h-231z" />
    <glyph glyph-name="comma" unicode="," horiz-adv-x="260" 
d="M50 -138l66 228h70l-77 -228h-59z" />
    <glyph glyph-name="period" unicode="." horiz-adv-x="260" 
d="M82 42q0 20 14 34t34 14t34 -14t14 -34t-14 -34t-34 -14t-34 14t-14 34z" />
    <glyph glyph-name="slash" unicode="/" horiz-adv-x="370" 
d="M9 -18l304 762l52 -18l-303 -762z" />
    <glyph glyph-name="zero" unicode="0" 
d="M26 354q0 52 5 98t20.5 97t40 87t68 60t100.5 24t100.5 -24t68 -60t40 -87t20.5 -97t5 -98t-5 -98t-20.5 -97t-40 -87t-68 -60t-100.5 -24t-100.5 24t-68 60t-40 87t-20.5 97t-5 98zM92 354q0 -39 3 -75t13.5 -81.5t27.5 -78t49 -55t75 -22.5t75 22.5t49 55t27.5 78
t13.5 81.5t3 75t-3 75t-13.5 81.5t-27.5 78t-49 55t-75 22.5t-75 -22.5t-49 -55t-27.5 -78t-13.5 -81.5t-3 -75z" />
    <glyph glyph-name="one" unicode="1" 
d="M261 0v624h-1l-128 -105l-37 46l175 143h51v-708h-60z" />
    <glyph glyph-name="two" unicode="2" 
d="M41 0v70l266 281q31 33 48.5 54t35 57.5t17.5 71.5q0 60 -39.5 96t-101.5 36q-54 0 -92.5 -32t-49.5 -84l-70 7q17 80 74 121.5t141 41.5q85 0 144.5 -49t59.5 -132q0 -39 -11 -74.5t-36 -70t-44 -55.5t-55 -58l-221 -227h372v-54h-438z" />
    <glyph glyph-name="three" unicode="3" 
d="M41 127l65 21q20 -53 55.5 -79.5t93.5 -26.5q76 0 117 43.5t41 110.5q0 73 -55.5 109.5t-131.5 36.5h-26v60h30q65 0 111.5 33.5t46.5 100.5q0 57 -36 93.5t-95 36.5q-43 0 -78.5 -22t-55.5 -61l-57 32q56 105 191 105q86 0 141.5 -47t55.5 -135q0 -59 -33 -103.5
t-93 -60.5v-2q67 -12 109 -62.5t42 -118.5q0 -88 -57 -145.5t-162 -57.5q-165 0 -219 139z" />
    <glyph glyph-name="four" unicode="4" 
d="M329 0v174h-306v71l283 463h83v-480h108v-54h-108v-174h-60zM329 228v414h-2l-250 -414h252z" />
    <glyph glyph-name="five" unicode="5" 
d="M451 708v-54h-292l-3 -225q39 20 103 20q99 0 159.5 -68t60.5 -166q0 -107 -69.5 -167t-156.5 -60q-149 0 -212 120l62 31q18 -41 60.5 -69t89.5 -28q57 0 108.5 45.5t51.5 123.5q0 77 -51.5 130.5t-126.5 53.5q-71 0 -140 -48l6 361h350z" />
    <glyph glyph-name="six" unicode="6" 
d="M361 708l-193 -312h2q36 30 105 30q94 0 155.5 -63t61.5 -155q0 -96 -65.5 -158t-166.5 -62t-166.5 62t-65.5 158q0 34 12 71.5t22 56t31 53.5l192 319h76zM260 374q-69 0 -117.5 -48.5t-48.5 -117.5q0 -74 46 -120t120 -46t120 46t46 120q0 69 -48.5 117.5t-117.5 48.5z
" />
    <glyph glyph-name="seven" unicode="7" 
d="M443 708v-54l-282 -654h-67l287 654h-340v54h402z" />
    <glyph glyph-name="eight" unicode="8" 
d="M66 536q0 82 55 133t139 51t139 -51t55 -133q0 -51 -31.5 -96.5t-81.5 -59.5v-1q65 -14 101.5 -65t36.5 -117q0 -94 -62 -151.5t-157 -57.5t-157 57.5t-62 151.5q0 66 36.5 117t101.5 65v1q-50 14 -81.5 59.5t-31.5 96.5zM132 536q0 -54 36 -92t92 -38t92 38t36 92
q0 58 -36.5 94t-91.5 36t-91.5 -36t-36.5 -94zM107 197q0 -65 42.5 -110t110.5 -45t110.5 45t42.5 110q0 69 -44 112t-109 43t-109 -43t-44 -112z" />
    <glyph glyph-name="nine" unicode="9" 
d="M159 0l193 312h-2q-36 -30 -105 -30q-94 0 -155.5 63t-61.5 155q0 96 65.5 158t166.5 62t166.5 -62t65.5 -158q0 -34 -12 -71.5t-22 -56t-31 -53.5l-192 -319h-76zM260 334q69 0 117.5 48.5t48.5 117.5q0 74 -46 120t-120 46t-120 -46t-46 -120q0 -69 48.5 -117.5
t117.5 -48.5z" />
    <glyph glyph-name="colon" unicode=":" horiz-adv-x="260" 
d="M82 420q0 20 14 34t34 14t34 -14t14 -34t-14 -34t-34 -14t-34 14t-14 34zM82 42q0 20 14 34t34 14t34 -14t14 -34t-14 -34t-34 -14t-34 14t-14 34z" />
    <glyph glyph-name="semicolon" unicode=";" horiz-adv-x="260" 
d="M50 -138l66 228h70l-77 -228h-59zM82 420q0 20 14 34t34 14t34 -14t14 -34t-14 -34t-34 -14t-34 14t-14 34z" />
    <glyph glyph-name="less" unicode="&#x3c;" horiz-adv-x="666" 
d="M584 561v-50l-448 -208l448 -208v-50l-502 234v48z" />
    <glyph glyph-name="equal" unicode="=" horiz-adv-x="666" 
d="M78 351v48h510v-48h-510zM78 207v48h510v-48h-510z" />
    <glyph glyph-name="greater" unicode="&#x3e;" horiz-adv-x="666" 
d="M82 45v50l448 208l-448 208v50l502 -234v-48z" />
    <glyph glyph-name="question" unicode="?" horiz-adv-x="463" 
d="M204 186v84q0 37 16 67t39 52l46 44t39 52t16 66q0 54 -31.5 87.5t-85.5 33.5q-51 0 -85.5 -31.5t-45.5 -84.5l-65 8q13 75 66.5 118.5t128.5 43.5q81 0 132.5 -46t51.5 -126q0 -46 -16.5 -81.5t-40.5 -58.5t-48 -44t-40.5 -51.5t-16.5 -68.5v-64h-60zM187 42q0 20 14 34
t34 14t34 -14t14 -34t-14 -34t-34 -14t-34 14t-14 34z" />
    <glyph glyph-name="at" unicode="@" horiz-adv-x="800" 
d="M254 280q0 -42 23 -68.5t61 -26.5q66 0 117.5 77.5t51.5 149.5q0 102 -81 102q-48 0 -88.5 -39t-62 -92.5t-21.5 -102.5zM622 549l-97 -290q-11 -33 -11 -48q0 -26 26 -26q53 0 107.5 79t54.5 162q0 109 -85 180.5t-201 71.5q-134 0 -226 -96.5t-92 -226.5
q0 -134 94 -229.5t226 -95.5q74 0 144.5 37t109.5 95h58q-45 -82 -131 -131t-181 -49q-161 0 -267.5 108t-106.5 265q0 156 107.5 263.5t262.5 107.5q146 0 244 -86t98 -214q0 -121 -73 -208t-161 -87q-27 0 -44.5 17.5t-17.5 49.5h-2q-22 -27 -57.5 -47t-71.5 -20
q-65 0 -100 42t-35 105q0 112 66 201t170 89q82 0 106 -83h2l24 64h60z" />
    <glyph glyph-name="A" unicode="A" horiz-adv-x="685" 
d="M5 0l309 708h68l298 -708h-74l-77 188h-375l-80 -188h-69zM505 248l-160 388l-165 -388h325z" />
    <glyph glyph-name="B" unicode="B" horiz-adv-x="630" 
d="M97 0v708h204q46 0 82 -7t71.5 -26t55 -58t19.5 -96q0 -56 -33 -95.5t-94 -51.5v-2q70 -5 114 -52.5t44 -121.5q0 -58 -22.5 -99t-60.5 -61.5t-75.5 -29t-78.5 -8.5h-226zM163 648v-246h137q48 0 82.5 12t51 31.5t23 38t6.5 37.5q0 127 -154 127h-146zM163 342v-282h151
q55 0 93 13.5t55.5 36t24.5 43.5t7 43q0 73 -50 109.5t-120 36.5h-161z" />
    <glyph glyph-name="C" unicode="C" horiz-adv-x="704" 
d="M626 152l54 -41q-94 -129 -263 -129q-161 0 -263.5 104.5t-102.5 267.5t102.5 267.5t263.5 104.5q157 0 244 -111l-54 -45q-32 47 -83 71.5t-107 24.5q-136 0 -218 -88.5t-82 -223.5t82 -223.5t218 -88.5q58 0 116 28t93 82z" />
    <glyph glyph-name="D" unicode="D" horiz-adv-x="741" 
d="M88 0v708h219q75 0 136.5 -17.5t100.5 -43.5t68 -62.5t43.5 -69t23 -69t10 -56t1.5 -36.5t-1.5 -36.5t-10 -56t-23 -69t-43.5 -69t-68 -62.5t-100.5 -43.5t-136.5 -17.5h-219zM154 648v-588h136q149 0 241.5 74t92.5 220t-92.5 220t-241.5 74h-136z" />
    <glyph glyph-name="E" unicode="E" horiz-adv-x="593" 
d="M97 0v708h433v-60h-367v-252h344v-60h-344v-276h383v-60h-449z" />
    <glyph glyph-name="F" unicode="F" horiz-adv-x="556" 
d="M97 0v708h424v-60h-358v-252h333v-60h-333v-336h-66z" />
    <glyph glyph-name="G" unicode="G" horiz-adv-x="778" 
d="M681 382v-336q-112 -64 -264 -64q-161 0 -263.5 104.5t-102.5 267.5t102.5 267.5t263.5 104.5q158 0 255 -98l-48 -50q-32 39 -90.5 63.5t-116.5 24.5q-136 0 -218 -88.5t-82 -223.5t82 -223.5t218 -88.5q127 0 198 42v238h-170v60h236z" />
    <glyph glyph-name="H" unicode="H" horiz-adv-x="722" 
d="M97 0v708h66v-312h396v312h66v-708h-66v336h-396v-336h-66z" />
    <glyph glyph-name="I" unicode="I" horiz-adv-x="260" 
d="M97 0v708h66v-708h-66z" />
    <glyph glyph-name="J" unicode="J" horiz-adv-x="482" 
d="M385 708v-500q0 -32 -2.5 -57t-13.5 -59t-30.5 -56t-57.5 -38t-90 -16q-75 0 -121.5 38.5t-62.5 106.5l66 12q24 -97 118 -97q128 0 128 150v516h66z" />
    <glyph glyph-name="K" unicode="K" horiz-adv-x="611" 
d="M97 0v708h66v-312h6l343 312h91l-358 -324l378 -384h-95l-359 366h-6v-366h-66z" />
    <glyph glyph-name="L" unicode="L" horiz-adv-x="500" 
d="M97 0v708h66v-648h330v-60h-396z" />
    <glyph glyph-name="M" unicode="M" horiz-adv-x="889" 
d="M90 0v708h99l258 -594l258 594h94v-708h-66v624h-2l-270 -624h-29l-274 624h-2v-624h-66z" />
    <glyph glyph-name="N" unicode="N" horiz-adv-x="778" 
d="M97 0v708h85l431 -620h2v620h66v-708h-85l-431 620h-2v-620h-66z" />
    <glyph glyph-name="O" unicode="O" horiz-adv-x="834" 
d="M51 354q0 163 102.5 267.5t263.5 104.5t263.5 -104.5t102.5 -267.5t-102.5 -267.5t-263.5 -104.5t-263.5 104.5t-102.5 267.5zM117 354q0 -135 82 -223.5t218 -88.5t218 88.5t82 223.5t-82 223.5t-218 88.5t-218 -88.5t-82 -223.5z" />
    <glyph glyph-name="P" unicode="P" horiz-adv-x="574" 
d="M97 0v708h204q41 0 78.5 -9t72.5 -28.5t56 -58t21 -91.5q0 -91 -61.5 -138t-151.5 -47h-153v-336h-66zM163 648v-252h150q64 0 107 30t43 95q0 64 -45 95.5t-109 31.5h-146z" />
    <glyph glyph-name="Q" unicode="Q" horiz-adv-x="834" 
d="M813 60v-60h-390q-152 0 -262 102t-110 261q0 157 99 260t260 103t260 -103t99 -260q0 -97 -48.5 -184t-128.5 -117v-2h221zM117 363q0 -127 86 -215t218 -88q130 0 206 89t76 214q0 132 -79 217.5t-214 85.5t-214 -85.5t-79 -217.5z" />
    <glyph glyph-name="R" unicode="R" horiz-adv-x="593" 
d="M163 648v-252h140q49 0 84 12.5t51.5 33t23.5 40t7 40.5t-7 40.5t-23.5 40t-51.5 33t-84 12.5h-140zM97 0v708h186q252 0 252 -186q0 -159 -181 -182l206 -340h-75l-199 336h-123v-336h-66z" />
    <glyph glyph-name="S" unicode="S" horiz-adv-x="556" 
d="M53 89l63 42q53 -89 162 -89q68 0 113.5 38t45.5 101q0 46 -27 76t-67.5 43t-88 30t-88 35.5t-67.5 61t-27 105.5q0 90 66 142t161 52q125 0 193 -89l-57 -41q-50 70 -138 70q-68 0 -113.5 -35t-45.5 -99q0 -43 20 -72t52.5 -44.5t71 -27t77.5 -25t71.5 -33.5t52.5 -57.5
t20 -91.5q0 -92 -64.5 -145.5t-155.5 -53.5q-154 0 -230 107z" />
    <glyph glyph-name="T" unicode="T" horiz-adv-x="574" 
d="M254 0v648h-242v60h550v-60h-242v-648h-66z" />
    <glyph glyph-name="U" unicode="U" horiz-adv-x="684" 
d="M600 708v-437q0 -59 -13.5 -109t-42.5 -91.5t-80.5 -65t-121.5 -23.5t-121.5 23.5t-80.5 65t-42.5 91.5t-13.5 109v437h66v-420q0 -34 4 -64.5t16.5 -65t32.5 -59t56 -41t83 -16.5t83 16.5t56 41t32.5 59t16.5 65t4 64.5v420h66z" />
    <glyph glyph-name="V" unicode="V" horiz-adv-x="593" 
d="M261 0l-264 708h71l228 -621l230 621h70l-269 -708h-66z" />
    <glyph glyph-name="W" unicode="W" horiz-adv-x="944" 
d="M211 0l-206 708h68l176 -627h2l179 627h84l179 -627h2l176 627h68l-206 -708h-81l-179 630h-2l-179 -630h-81z" />
    <glyph glyph-name="X" unicode="X" horiz-adv-x="611" 
d="M1 0l266 372l-242 336h78l204 -288l201 288h79l-240 -336l263 -372h-82l-224 320l-224 -320h-79z" />
    <glyph glyph-name="Y" unicode="Y" horiz-adv-x="574" 
d="M254 0v305l-260 403h79l214 -336l219 336h74l-260 -403v-305h-66z" />
    <glyph glyph-name="Z" unicode="Z" horiz-adv-x="556" 
d="M23 0v52l414 596h-408v60h493v-54l-417 -594h428v-60h-510z" />
    <glyph glyph-name="bracketleft" unicode="[" horiz-adv-x="260" 
d="M224 732v-48h-90v-792h90v-48h-150v888h150z" />
    <glyph glyph-name="backslash" unicode="\" horiz-adv-x="370" 
d="M57 744l304 -762l-53 -18l-303 762z" />
    <glyph glyph-name="bracketright" unicode="]" horiz-adv-x="260" 
d="M36 -156v48h90v792h-90v48h150v-888h-150z" />
    <glyph glyph-name="asciicircum" unicode="^" horiz-adv-x="666" 
d="M82 256l228 452h46l228 -452h-56l-195 398l-194 -398h-57z" />
    <glyph glyph-name="underscore" unicode="_" horiz-adv-x="500" 
d="M0 -125v50h500v-50h-500z" />
    <glyph glyph-name="grave" unicode="`" horiz-adv-x="240" 
d="M74 708l104 -144h-50l-134 144h80z" />
    <glyph glyph-name="a" unicode="a" horiz-adv-x="519" 
d="M439 307v-113q0 -126 9 -194h-56q-6 34 -6 75h-2q-50 -87 -162 -87q-67 0 -115 34.5t-48 102.5q0 155 256 155h70v28q0 57 -35.5 84.5t-94.5 27.5q-80 0 -141 -52l-35 41q32 30 80.5 47.5t95.5 17.5q87 0 135.5 -41t48.5 -126zM385 232h-66q-85 0 -142.5 -24.5
t-57.5 -79.5q0 -40 32 -63t73 -23q88 0 124.5 45.5t36.5 113.5v31z" />
    <glyph glyph-name="b" unicode="b" horiz-adv-x="611" 
d="M67 0v756h60v-375h2q26 45 77.5 69t107.5 24q106 0 174.5 -68.5t68.5 -174.5t-68.5 -174.5t-174.5 -68.5q-56 0 -107.5 24t-77.5 69h-2v-81h-60zM121 231q0 -78 56 -133.5t137 -55.5q83 0 133 54.5t50 134.5t-50 134.5t-133 54.5q-81 0 -137 -55.5t-56 -133.5z" />
    <glyph glyph-name="c" unicode="c" horiz-adv-x="481" 
d="M421 106l46 -38q-67 -80 -170 -80q-106 0 -174.5 68.5t-68.5 174.5t68.5 174.5t174.5 68.5q101 0 172 -80l-48 -36q-57 62 -124 62q-83 0 -133 -54.5t-50 -134.5t50 -134.5t133 -54.5q72 0 124 64z" />
    <glyph glyph-name="d" unicode="d" horiz-adv-x="611" 
d="M484 0v81h-2q-26 -45 -77.5 -69t-107.5 -24q-106 0 -174.5 68.5t-68.5 174.5t68.5 174.5t174.5 68.5q56 0 107.5 -24t77.5 -69h2v375h60v-756h-60zM490 231q0 78 -56 133.5t-137 55.5q-83 0 -133 -54.5t-50 -134.5t50 -134.5t133 -54.5q81 0 137 55.5t56 133.5z" />
    <glyph glyph-name="e" unicode="e" horiz-adv-x="556" 
d="M444 124l44 -37q-66 -99 -200 -99q-105 0 -169.5 68t-64.5 176q0 104 65 173t166 69t159 -64.5t58 -151.5v-42h-388q0 -17 4.5 -37.5t17 -45t31 -44.5t50.5 -33.5t72 -13.5q46 0 89.5 22.5t65.5 59.5zM114 270h328q0 62 -47 106t-113 44q-45 0 -80.5 -19.5t-53 -47
t-26 -49.5t-8.5 -34z" />
    <glyph glyph-name="f" unicode="f" horiz-adv-x="296" 
d="M114 0v408h-96v54h96v151q0 81 42 118t96 37q42 0 69 -12l-12 -52q-20 10 -54 10q-81 0 -81 -123v-129h108v-54h-108v-408h-60z" />
    <glyph glyph-name="g" unicode="g" horiz-adv-x="611" 
d="M544 462v-432q0 -66 -17 -116t-42 -78.5t-60 -46.5t-65 -23.5t-62 -5.5q-70 0 -132 26t-97 71l47 44q62 -87 182 -87q186 0 186 212v64h-2q-57 -90 -175 -90q-102 0 -174.5 69.5t-72.5 167.5t72.5 167.5t174.5 69.5q118 0 175 -90h2v78h60zM486 237q0 76 -53.5 129.5
t-129.5 53.5t-129.5 -53.5t-53.5 -129.5t53.5 -129.5t129.5 -53.5t129.5 53.5t53.5 129.5z" />
    <glyph glyph-name="h" unicode="h" horiz-adv-x="556" 
d="M80 0v756h60v-375h2q19 40 61.5 66.5t96.5 26.5q176 0 176 -199v-275h-60v272q0 148 -116 148q-70 0 -115 -49t-45 -140v-231h-60z" />
    <glyph glyph-name="i" unicode="i" horiz-adv-x="240" 
d="M90 0v462h60v-462h-60zM75 645q0 19 13 32t32 13t32 -13t13 -32t-13 -32t-32 -13t-32 13t-13 32z" />
    <glyph glyph-name="j" unicode="j" horiz-adv-x="240" 
d="M150 462v-543q0 -78 -28.5 -118.5t-103.5 -40.5q-24 0 -48 9l9 53q21 -8 38 -8q44 0 58.5 26.5t14.5 73.5v548h60zM75 645q0 19 13 32t32 13t32 -13t13 -32t-13 -32t-32 -13t-32 13t-13 32z" />
    <glyph glyph-name="k" unicode="k" horiz-adv-x="481" 
d="M80 0v756h60v-504l228 209h88l-238 -211l266 -250h-91l-253 244v-244h-60z" />
    <glyph glyph-name="l" unicode="l" horiz-adv-x="240" 
d="M90 0v756h60v-756h-60z" />
    <glyph glyph-name="m" unicode="m" horiz-adv-x="852" 
d="M80 0v332q0 18 -2.5 68.5t-2.5 61.5h60q2 -73 4 -81h3q19 40 61.5 66.5t96.5 26.5q48 0 85.5 -25t53.5 -75q21 49 63.5 74.5t93.5 25.5q176 0 176 -199v-275h-60v272q0 148 -116 148q-39 0 -68 -15.5t-44 -40.5t-21.5 -51t-6.5 -53v-260h-60v278q0 66 -24.5 104t-71.5 38
q-70 0 -115 -49t-45 -140v-231h-60z" />
    <glyph glyph-name="n" unicode="n" horiz-adv-x="556" 
d="M80 0v332q0 18 -2.5 68.5t-2.5 61.5h60q2 -73 4 -81h3q19 40 61.5 66.5t96.5 26.5q176 0 176 -199v-275h-60v272q0 148 -116 148q-70 0 -115 -49t-45 -140v-231h-60z" />
    <glyph glyph-name="o" unicode="o" horiz-adv-x="594" 
d="M54 231q0 106 68.5 174.5t174.5 68.5t174.5 -68.5t68.5 -174.5t-68.5 -174.5t-174.5 -68.5t-174.5 68.5t-68.5 174.5zM114 231q0 -80 50 -134.5t133 -54.5t133 54.5t50 134.5t-50 134.5t-133 54.5t-133 -54.5t-50 -134.5z" />
    <glyph glyph-name="p" unicode="p" horiz-adv-x="611" 
d="M67 -228v690h60v-81h2q26 45 77.5 69t107.5 24q106 0 174.5 -68.5t68.5 -174.5t-68.5 -174.5t-174.5 -68.5q-56 0 -107.5 24t-77.5 69h-2v-309h-60zM121 231q0 -78 56 -133.5t137 -55.5q83 0 133 54.5t50 134.5t-50 134.5t-133 54.5q-81 0 -137 -55.5t-56 -133.5z" />
    <glyph glyph-name="q" unicode="q" horiz-adv-x="611" 
d="M484 -228v309h-2q-26 -45 -77.5 -69t-107.5 -24q-106 0 -174.5 68.5t-68.5 174.5t68.5 174.5t174.5 68.5q56 0 107.5 -24t77.5 -69h2v81h60v-690h-60zM490 231q0 78 -56 133.5t-137 55.5q-83 0 -133 -54.5t-50 -134.5t50 -134.5t133 -54.5q81 0 137 55.5t56 133.5z" />
    <glyph glyph-name="r" unicode="r" horiz-adv-x="333" 
d="M80 0v332q0 18 -2.5 68.5t-2.5 61.5h60q2 -73 4 -81q52 93 147 93q15 0 35 -5l-7 -59q-12 4 -23 4q-75 0 -113 -45t-38 -117v-252h-60z" />
    <glyph glyph-name="s" unicode="s" horiz-adv-x="426" 
d="M28 82l53 36q18 -36 55 -56t79 -20t74 23.5t32 61.5q0 35 -28 53.5t-68.5 26.5t-81 18.5t-68.5 38.5t-28 77q0 63 47.5 98t110.5 35q119 0 163 -87l-54 -32q-36 65 -109 65q-36 0 -67 -20t-31 -54t28 -51.5t68.5 -25t81 -17.5t68.5 -39.5t28 -81.5q0 -68 -48.5 -105.5
t-118.5 -37.5q-133 0 -186 94z" />
    <glyph glyph-name="t" unicode="t" horiz-adv-x="333" 
d="M306 462v-54h-132v-301q0 -31 17 -48t47 -17q31 0 68 16l5 -54q-44 -16 -78 -16q-61 0 -90 33t-29 86v301h-100v54h100v133h60v-133h132z" />
    <glyph glyph-name="u" unicode="u" horiz-adv-x="556" 
d="M471 462v-332q0 -18 2.5 -68.5t2.5 -61.5h-60q-2 73 -4 81h-3q-19 -40 -61.5 -66.5t-96.5 -26.5q-176 0 -176 199v275h60v-272q0 -148 116 -148q70 0 115 49t45 140v231h60z" />
    <glyph glyph-name="v" unicode="v" horiz-adv-x="463" 
d="M204 0l-189 462h68l154 -397l150 397h61l-182 -462h-62z" />
    <glyph glyph-name="w" unicode="w" horiz-adv-x="704" 
d="M160 0l-145 462h66l112 -387h2l129 387h57l137 -387h2l109 387h60l-136 -462h-62l-138 378h-2l-129 -378h-62z" />
    <glyph glyph-name="x" unicode="x" horiz-adv-x="481" 
d="M6 0l192 250l-165 212h77l128 -175l127 175h75l-163 -212l198 -250h-78l-161 209l-158 -209h-72z" />
    <glyph glyph-name="y" unicode="y" horiz-adv-x="463" 
d="M448 462l-238 -605q-38 -97 -127 -97q-25 0 -59 9l6 56q37 -11 54 -11q29 0 46 21t31 56l42 107l-188 464h67l153 -389l149 389h64z" />
    <glyph glyph-name="z" unicode="z" horiz-adv-x="426" 
d="M27 0v36l277 372h-263v54h346v-36l-276 -372h288v-54h-372z" />
    <glyph glyph-name="braceleft" unicode="{" horiz-adv-x="333" 
d="M274 732v-48h-23q-29 0 -42 -28t-13 -70v-141q0 -47 -15.5 -85t-30 -52t-24.5 -19v-2q11 -6 25 -20t29.5 -51.5t15.5 -84.5v-142q0 -41 13 -69t42 -28h23v-48h-50q-42 0 -65 32.5t-23 88.5v146q0 153 -70 153v48q70 0 70 154v145q0 57 23 89t65 32h50z" />
    <glyph glyph-name="bar" unicode="|" horiz-adv-x="222" 
d="M87 750h48v-1000h-48v1000z" />
    <glyph glyph-name="braceright" unicode="}" horiz-adv-x="333" 
d="M59 -156v48h23q29 0 42 28t13 70v141q0 47 15.5 85t30 52t24.5 19v2q-11 6 -25 20t-29.5 51.5t-15.5 84.5v142q0 41 -13 69t-42 28h-23v48h50q42 0 65 -32.5t23 -88.5v-146q0 -153 70 -153v-48q-70 0 -70 -154v-145q0 -57 -23 -89t-65 -32h-50z" />
    <glyph glyph-name="asciitilde" unicode="~" horiz-adv-x="666" 
d="M529 364l34 -32q-43 -90 -125 -90q-32 0 -115 36q-72 32 -98 32q-27 0 -47 -17.5t-41 -50.5l-34 32q47 90 125 90q32 0 115 -36q72 -32 98 -32q27 0 47 17.5t41 50.5z" />
    <glyph glyph-name="Euro" unicode="&#x20ac;" 
d="M491 79q-25 -39 -73 -65t-99 -26q-96 0 -154.5 65.5t-75.5 189.5h-72l13 47h55q-2 38 -2 60q0 29 4 77h-71l15 47h63q24 129 91.5 187.5t155.5 58.5q80 0 142 -31l-18 -56q-60 33 -116 33q-75 0 -124 -48.5t-68 -143.5h271l-12 -47h-266q-4 -33 -4 -80q0 -21 2 -57h234
l-12 -47h-217q28 -204 167 -204q41 0 75.5 20t53.5 51z" />
  </font>
</defs></svg>
